{"apps" : [
  {
    "name": "getir-data-service",
    "script": "app.js",
    "args": ["--color"],
    "watch": true,
    "ignore_watch": [
      "pids",
      "logs",
      "node_modules",
      "app/staticData/uploads",
      "*.log",
      ".*",
      ".git/*",
      "newrelic_agent.log"
    ],
    "merge_logs": true,
    "cwd": "src",
    "error_file": "./logs/getir-data-service.log",
    "out_file": "./logs/getir-data-service.log",
    "pid_file": "./pids/getir-data-service.pid",
    "min_uptime": "30s",
    "max_restarts": 30,
    "restart_delay": 1000,
    "max_memory_restart": "8G",
    "node_args": "--max_old_space_size=500",
    "log_date_format": "YYYY-MM-DD HH:mm Z",
    "env": {
      "NODE_ENV": "development"
    },
    "env_uat": {
      "NODE_ENV": "uat"
    },
    "env_hf": {
      "NODE_ENV": "hf"
    },
    "env_it": {
      "NODE_ENV": "it"
    },
    "env_production": {
      "NODE_ENV": "production"
    }
  }
]
}
